<?xml version="1.0" encoding="utf-8"?>
<!-- Generator: Adobe Illustrator 16.0.0, SVG Export Plug-In . SVG Version: 6.00 Build 0)  -->
<!DOCTYPE svg PUBLIC "-//W3C//DTD SVG 1.1//EN" "http://www.w3.org/Graphics/SVG/1.1/DTD/svg11.dtd">
<svg version="1.1" id="Layer_1" xmlns="http://www.w3.org/2000/svg" xmlns:xlink="http://www.w3.org/1999/xlink" x="0px" y="0px"
	 width="112px" height="65px" viewBox="0 0 112 65" enable-background="new 0 0 112 65" xml:space="preserve">
<g>
	<polygon fill="#9C2C25" points="4.48,60.52 4.48,4.479 10.931,4.479 10.931,0 0.002,0 0.002,0.646 0,0.646 0,61.857 0.002,61.857 
		0.002,65 10.996,65 10.996,60.52 	"/>
	<polygon fill="#282B2E" points="17.517,22.87 16.338,25.086 16.338,32.537 12.525,32.537 12.525,8.283 16.338,8.283 16.338,18.851 
		21.328,8.283 25.139,8.283 19.838,19.094 25.139,32.537 21.223,32.537 	"/>
	<g>
		<g>
			<path fill="#282B2E" d="M32.238,8.283v18.71c0,1.732,0.764,2.356,1.977,2.356c1.214,0,1.977-0.624,1.977-2.356V8.283h3.601V26.75
				c0,3.881-1.94,6.098-5.683,6.098c-3.74,0-5.682-2.217-5.682-6.098V8.283H32.238z"/>
		</g>
	</g>
	<polygon fill="#282B2E" points="43.719,8.283 47.527,8.283 47.527,29.073 53.801,29.073 53.801,32.537 43.719,32.537 	"/>
	<polygon fill="#282B2E" points="53.686,8.283 65.465,8.283 65.465,11.748 61.481,11.748 61.481,32.537 57.67,32.537 57.67,11.748 
		53.686,11.748 	"/>
	<g>
		<g>
			<path fill="#282B2E" d="M71.213,8.283v18.71c0,1.732,0.762,2.356,1.975,2.356c1.214,0,1.977-0.624,1.977-2.356V8.283h3.601V26.75
				c0,3.881-1.94,6.098-5.681,6.098c-3.742,0-5.684-2.217-5.684-6.098V8.283H71.213z"/>
			<path fill="#282B2E" d="M90.646,32.537c-0.208-0.626-0.346-1.005-0.346-2.979v-3.812c0-2.252-0.764-3.083-2.496-3.083h-1.316
				v9.875h-3.811V8.283h5.752c3.947,0,5.647,1.837,5.647,5.579v1.905c0,2.495-0.798,4.122-2.496,4.92
				c1.904,0.795,2.53,2.632,2.53,5.162v3.743c0,1.176,0.035,2.043,0.416,2.944H90.646z M86.488,11.748v7.448h1.488
				c1.422,0,2.289-0.623,2.289-2.563v-2.39c0-1.733-0.589-2.495-1.94-2.495H86.488z"/>
		</g>
	</g>
	<path fill="#282B2E" d="M110.604,32.537h-3.847l-0.657-4.4h-4.68l-0.656,4.4h-3.501l3.882-24.254h5.577L110.604,32.537z
		 M101.908,24.846h3.67l-1.836-12.267L101.908,24.846z"/>
	<g>
		<path fill="#9C2C25" d="M12.525,36.955h4.924c3.114,0,4.643,1.729,4.643,4.896v10.016c0,3.17-1.528,4.896-4.643,4.896h-4.924
			V36.955z M15.639,39.785v14.148h1.756c0.991,0,1.584-0.509,1.584-1.924v-10.3c0-1.415-0.593-1.925-1.584-1.925H15.639z"/>
		<path fill="#9C2C25" d="M25.521,41.71c0-3.169,1.667-4.979,4.724-4.979c3.059,0,4.726,1.811,4.726,4.979v10.3
			c0,3.17-1.667,4.98-4.726,4.98c-3.057,0-4.724-1.811-4.724-4.98V41.71z M28.633,52.207c0,1.416,0.621,1.951,1.611,1.951
			c0.991,0,1.613-0.535,1.613-1.951V41.513c0-1.415-0.622-1.953-1.613-1.953c-0.99,0-1.611,0.538-1.611,1.953V52.207z"/>
		<path fill="#9C2C25" d="M42.954,36.73c3.024,0,4.581,1.81,4.581,4.979v0.621h-2.941v-0.818c0-1.415-0.564-1.953-1.557-1.953
			c-0.99,0-1.557,0.538-1.557,1.953c0,4.073,6.084,4.839,6.084,10.497c0,3.17-1.586,4.98-4.639,4.98
			c-3.057,0-4.641-1.811-4.641-4.98v-1.218h2.941v1.415c0,1.416,0.621,1.926,1.611,1.926c0.992,0,1.612-0.51,1.612-1.926
			c0-4.074-6.081-4.838-6.081-10.497C38.369,38.54,39.925,36.73,42.954,36.73"/>
	</g>
	<polygon fill="#9C2C25" points="49.955,36.955 59.576,36.955 59.576,39.785 56.32,39.785 56.32,56.763 53.21,56.763 53.21,39.785 
		49.955,39.785 	"/>
	<g>
		<path fill="#9C2C25" d="M65.882,45.304h4.275v2.829h-4.275v5.801h5.378v2.829h-1.162c-0.705,0.595-0.848,1.245-0.848,1.642
			c0,0.537,0.48,0.792,0.99,0.792c0.564,0,0.709-0.084,1.02-0.17v1.584c-0.652,0.255-1.134,0.312-1.927,0.312
			c-1.497,0-2.46-0.593-2.46-1.754c0-0.905,0.621-1.754,1.895-2.405H62.77V36.955h8.49v2.83h-5.378V45.304z"/>
		<path fill="#9C2C25" d="M84.313,41.852v2.574c0,3.17-1.524,4.895-4.638,4.895h-1.473v7.442H75.09V36.955h4.586
			C82.789,36.955,84.313,38.684,84.313,41.852 M78.203,39.785v6.705h1.473c0.987,0,1.527-0.451,1.527-1.866v-2.972
			c0-1.414-0.54-1.867-1.527-1.867H78.203z"/>
	</g>
	<polygon fill="#9C2C25" points="89.955,42.419 89.955,56.763 87.153,56.763 87.153,36.955 91.059,36.955 94.254,48.812 
		94.254,36.955 97.029,36.955 97.029,56.763 93.832,56.763 	"/>
	<path fill="#9C2C25" d="M110.682,56.763h-3.141l-0.537-3.593h-3.822l-0.537,3.593h-2.858l3.169-19.808h4.558L110.682,56.763z
		 M103.578,50.482h2.999l-1.501-10.018L103.578,50.482z"/>
</g>
</svg>
