<?xml version="1.0" encoding="utf-8"?>
<!-- Generator: Adobe Illustrator 16.0.4, SVG Export Plug-In . SVG Version: 6.00 Build 0)  -->
<!DOCTYPE svg PUBLIC "-//W3C//DTD SVG 1.1//EN" "http://www.w3.org/Graphics/SVG/1.1/DTD/svg11.dtd">
<svg version="1.1" id="Warstwa_1" xmlns="http://www.w3.org/2000/svg" xmlns:xlink="http://www.w3.org/1999/xlink" x="0px" y="0px"
	 width="165px" height="80px" viewBox="0 0 165 80" enable-background="new 0 0 165 80" xml:space="preserve">
<g>
	<rect fill="#F4F4F4" width="165" height="80"/>
	<g>
		<path d="M61.161,38.396l3.492-2.309v2.707l-3.492,2.309v5.93h5.32v2.566h-8.051v-7.031l-1.723,1.148v-2.719l1.723-1.148v-8.344
			h2.73V38.396z"/>
		<path d="M68.017,43.81c0-1.648,0.59-3.051,1.77-4.207s2.617-1.734,4.312-1.734c1.703,0,3.148,0.582,4.336,1.746
			c1.172,1.164,1.758,2.594,1.758,4.289c0,1.711-0.59,3.145-1.77,4.301c-1.188,1.148-2.645,1.723-4.371,1.723
			c-1.711,0-3.145-0.586-4.301-1.758C68.595,47.013,68.017,45.56,68.017,43.81z M70.712,43.856c0,1.141,0.305,2.043,0.914,2.707
			c0.625,0.672,1.449,1.008,2.473,1.008c1.031,0,1.855-0.332,2.473-0.996s0.926-1.551,0.926-2.66s-0.309-1.996-0.926-2.66
			c-0.625-0.672-1.449-1.008-2.473-1.008c-1.008,0-1.824,0.336-2.449,1.008S70.712,42.794,70.712,43.856z M78.06,32.56l-4.266,3.867
			l-1.441-0.891l3.223-4.266L78.06,32.56z"/>
		<path d="M91.396,29.806h2.648v19.793h-2.648v-1.195c-1.039,1.016-2.215,1.523-3.527,1.523c-1.562,0-2.859-0.57-3.891-1.711
			c-1.023-1.164-1.535-2.617-1.535-4.359c0-1.703,0.512-3.125,1.535-4.266c1.016-1.148,2.293-1.723,3.832-1.723
			c1.336,0,2.531,0.547,3.586,1.641V29.806z M85.138,43.856c0,1.094,0.293,1.984,0.879,2.672c0.602,0.695,1.359,1.043,2.273,1.043
			c0.977,0,1.766-0.336,2.367-1.008c0.602-0.695,0.902-1.578,0.902-2.648s-0.301-1.953-0.902-2.648
			c-0.602-0.68-1.383-1.02-2.344-1.02c-0.906,0-1.664,0.344-2.273,1.031C85.438,41.974,85.138,42.833,85.138,43.856z"/>
		<path d="M101.157,47.114h6.785v2.484H95.931l7.395-8.953h-5.824v-2.461h11.039L101.157,47.114z M106.981,32.56l-4.266,3.867
			l-1.441-0.891l3.223-4.266L106.981,32.56z"/>
	</g>
</g>
</svg>
