<?xml version="1.0" encoding="utf-8"?>
<!-- Generator: Adobe Illustrator 16.0.4, SVG Export Plug-In . SVG Version: 6.00 Build 0)  -->
<!DOCTYPE svg PUBLIC "-//W3C//DTD SVG 1.1//EN" "http://www.w3.org/Graphics/SVG/1.1/DTD/svg11.dtd">
<svg version="1.1" id="Warstwa_1" xmlns="http://www.w3.org/2000/svg" xmlns:xlink="http://www.w3.org/1999/xlink" x="0px" y="0px"
	 width="165px" height="80px" viewBox="0 0 165 80" enable-background="new 0 0 165 80" xml:space="preserve">
<g>
	<rect fill="#F4F4F4" width="165" height="80"/>
	<g>
		<path d="M67.362,33.499c0.16,0,0.286,0.04,0.38,0.12c0.093,0.08,0.146,0.18,0.16,0.3c0.013,0.12-0.021,0.228-0.101,0.32
			c-0.08,0.094-0.199,0.153-0.359,0.18c-1.387,0.24-2.46,0.44-3.221,0.601c-0.76,0.16-1.42,0.359-1.979,0.6
			c-0.374,0.16-0.694,0.347-0.96,0.561c-0.267,0.213-0.454,0.446-0.561,0.699c-0.106,0.254-0.119,0.527-0.04,0.82
			c0.08,0.294,0.294,0.6,0.641,0.92c0.319,0.267,0.733,0.521,1.24,0.76c0.506,0.24,1.046,0.46,1.619,0.66s1.16,0.38,1.761,0.54
			c0.6,0.16,1.166,0.32,1.699,0.48c0.267,0.08,0.62,0.18,1.061,0.3c0.439,0.12,0.9,0.267,1.38,0.439
			c0.48,0.174,0.934,0.36,1.36,0.561c0.426,0.2,0.772,0.407,1.04,0.62c0.506-0.08,1-0.174,1.479-0.28
			c0.48-0.106,0.906-0.213,1.28-0.32c0.24-0.08,0.433-0.086,0.58-0.02c0.146,0.066,0.226,0.16,0.24,0.28
			c0.013,0.119-0.027,0.246-0.12,0.38c-0.094,0.134-0.261,0.239-0.5,0.319c-0.348,0.107-0.728,0.2-1.141,0.28s-0.819,0.147-1.22,0.2
			c0.293,0.64,0.333,1.28,0.12,1.92c-0.214,0.64-0.547,1.214-1,1.72c-0.64,0.667-1.521,1.227-2.64,1.681
			c-1.12,0.453-2.314,0.793-3.58,1.02c-1.268,0.227-2.527,0.34-3.78,0.34c-1.254,0-2.334-0.12-3.24-0.359
			c-0.587-0.134-1.18-0.354-1.78-0.66c-0.6-0.307-1.113-0.66-1.54-1.061c-0.427-0.399-0.699-0.826-0.819-1.279s0.02-0.894,0.42-1.32
			c0.293-0.32,0.666-0.566,1.12-0.74c0.453-0.173,0.946-0.312,1.479-0.42c0.533-0.106,1.08-0.18,1.641-0.22
			c0.56-0.04,1.08-0.087,1.56-0.141c1.546-0.133,3.04-0.266,4.48-0.399c1.439-0.133,2.906-0.307,4.399-0.521
			c-0.347-0.213-0.7-0.399-1.06-0.56c-0.36-0.16-0.728-0.307-1.101-0.44c-0.613-0.186-1.313-0.393-2.1-0.62
			c-0.787-0.226-1.567-0.473-2.34-0.739c-0.774-0.267-1.5-0.54-2.181-0.82c-0.68-0.28-1.22-0.58-1.619-0.9
			c-0.507-0.399-0.841-0.819-1-1.26c-0.16-0.439-0.174-0.866-0.04-1.28c0.133-0.413,0.399-0.786,0.8-1.119
			c0.399-0.334,0.893-0.594,1.479-0.78c1.066-0.347,2.134-0.613,3.2-0.8S66.162,33.687,67.362,33.499z M70.362,46.779
			c0.373-0.347,0.62-0.753,0.74-1.22c0.119-0.467,0.032-0.927-0.261-1.38c-1.52,0.239-2.993,0.427-4.42,0.56
			c-1.427,0.134-2.887,0.28-4.38,0.44c-0.32,0.026-0.76,0.054-1.32,0.079c-0.56,0.027-1.127,0.08-1.699,0.16
			c-0.574,0.08-1.101,0.2-1.58,0.36c-0.48,0.16-0.801,0.374-0.96,0.64c-0.188,0.374-0.214,0.66-0.08,0.86
			c0.133,0.2,0.266,0.354,0.399,0.46c0.934,0.693,2.026,1.16,3.28,1.4c1.253,0.239,2.521,0.3,3.8,0.18
			c1.28-0.12,2.5-0.407,3.66-0.86S69.642,47.446,70.362,46.779z M64.362,28.259c0.186-0.053,0.38-0.06,0.58-0.02
			c0.199,0.04,0.366,0.134,0.5,0.28c0.133,0.146,0.186,0.313,0.16,0.5l-2.04,3.319c-0.16,0.268-0.367,0.334-0.62,0.2
			c-0.254-0.133-0.314-0.346-0.181-0.64l1.28-3.32C64.068,28.419,64.175,28.313,64.362,28.259z"/>
		<path d="M77.642,46.819c0.053,1.04,0.16,2.046,0.319,3.02c0.16,0.974,0.347,1.913,0.561,2.82c0.026,0.106,0.066,0.286,0.12,0.54
			c0.053,0.253,0.113,0.533,0.18,0.84s0.126,0.594,0.18,0.86c0.054,0.266,0.08,0.479,0.08,0.64c0,0.106-0.073,0.206-0.22,0.3
			s-0.327,0.153-0.54,0.181c-0.214,0.026-0.434,0.026-0.66,0c-0.227-0.027-0.406-0.107-0.54-0.24c-0.214-0.32-0.413-0.854-0.6-1.6
			c-0.188-0.747-0.367-1.614-0.54-2.601c-0.174-0.986-0.32-2.047-0.44-3.18s-0.227-2.267-0.319-3.4
			c-0.094-1.133-0.167-2.213-0.221-3.24c-0.054-1.025-0.08-1.913-0.08-2.659c0-0.24,0.111-0.406,0.334-0.5s0.465-0.134,0.727-0.12
			c0.261,0.014,0.504,0.08,0.727,0.2c0.222,0.119,0.333,0.286,0.333,0.5c-0.026,0.666-0.026,1.279,0,1.84
			c0.613-0.533,1.347-0.786,2.2-0.761c0.4,0.055,0.76,0.214,1.08,0.48s0.566,0.594,0.74,0.98c0.173,0.387,0.266,0.807,0.279,1.26
			s-0.06,0.866-0.22,1.24c-0.294,0.666-0.76,1.22-1.399,1.659C79.081,46.319,78.388,46.633,77.642,46.819z M79.802,44.619
			c0.213-0.213,0.38-0.479,0.5-0.8c0.119-0.32,0.166-0.64,0.14-0.96c-0.027-0.32-0.114-0.62-0.26-0.9
			c-0.147-0.279-0.38-0.486-0.7-0.62c-0.4,0.16-0.72,0.407-0.96,0.74c-0.24,0.334-0.427,0.7-0.561,1.101
			c-0.134,0.399-0.227,0.826-0.279,1.279c-0.054,0.454-0.08,0.894-0.08,1.32c0.346-0.053,0.713-0.173,1.1-0.36
			C79.088,45.233,79.454,44.966,79.802,44.619z"/>
		<path d="M83.2,40.459c0-0.213,0.106-0.366,0.32-0.46c0.213-0.093,0.446-0.14,0.7-0.14c0.253,0,0.493,0.054,0.72,0.16
			s0.366,0.254,0.42,0.439c0.026,0.694,0.047,1.447,0.061,2.261c0.013,0.813,0.046,1.579,0.1,2.3c0.053,0.72,0.14,1.333,0.26,1.84
			s0.326,0.8,0.62,0.88c0.347-0.08,0.673-0.32,0.98-0.72c0.306-0.4,0.58-0.86,0.819-1.38c0.24-0.521,0.44-1.047,0.601-1.58
			s0.28-0.974,0.359-1.32c0.026-0.16,0.101-0.267,0.221-0.32c0.12-0.053,0.239-0.066,0.359-0.04c0.12,0.027,0.221,0.094,0.301,0.2
			c0.079,0.107,0.093,0.254,0.04,0.44c-0.348,1.467-0.935,2.84-1.761,4.12c-0.214,0.293-0.467,0.573-0.76,0.84
			c-0.294,0.266-0.62,0.473-0.979,0.62c-0.36,0.146-0.734,0.199-1.12,0.159c-0.388-0.039-0.754-0.233-1.101-0.579
			c-0.373-0.4-0.646-0.986-0.819-1.761c-0.174-0.772-0.28-1.566-0.32-2.38c-0.04-0.812-0.054-1.56-0.04-2.24
			C83.193,41.119,83.2,40.673,83.2,40.459z M84.601,36.859c0.213,0,0.373,0.06,0.48,0.18c0.105,0.12,0.166,0.247,0.18,0.38
			c0.013,0.134-0.034,0.261-0.141,0.38c-0.106,0.12-0.253,0.181-0.439,0.181c-0.454,0.054-0.787,0.02-1-0.101
			c-0.214-0.12-0.32-0.253-0.32-0.399s0.101-0.286,0.3-0.42C83.86,36.926,84.174,36.859,84.601,36.859z"/>
		<path d="M91.44,39.259c0.453,0.055,0.793,0.188,1.02,0.4c0.227,0.214,0.394,0.467,0.5,0.76c0.106,0.294,0.127,0.62,0.061,0.98
			c-0.067,0.359-0.188,0.714-0.36,1.06c-0.174,0.347-0.387,0.674-0.64,0.98c-0.254,0.307-0.527,0.58-0.82,0.819
			c0.267,0.881,0.62,1.66,1.061,2.341c0.439,0.68,0.953,1.033,1.54,1.06c0.373-0.267,0.726-0.646,1.06-1.14
			c0.333-0.493,0.58-0.9,0.74-1.221c0.266-0.532,0.446-0.985,0.54-1.359c0.093-0.373,0.206-0.773,0.34-1.2
			c0.026-0.16,0.1-0.267,0.22-0.32c0.12-0.053,0.233-0.066,0.34-0.04c0.106,0.027,0.2,0.094,0.28,0.2
			c0.08,0.107,0.093,0.254,0.04,0.44c-0.16,0.693-0.38,1.394-0.66,2.1c-0.28,0.707-0.646,1.38-1.1,2.021
			c-0.294,0.373-0.614,0.713-0.96,1.02c-0.348,0.307-0.721,0.5-1.12,0.58c-0.854,0.16-1.594,0.033-2.22-0.38
			c-0.627-0.414-1.134-0.98-1.521-1.7s-0.653-1.52-0.8-2.4c-0.147-0.88-0.154-1.699-0.021-2.46c0.134-0.76,0.4-1.386,0.801-1.88
			C90.16,39.426,90.721,39.206,91.44,39.259z M91,43.379c0.373-0.319,0.7-0.726,0.98-1.22c0.28-0.493,0.366-0.926,0.26-1.3
			c-0.054-0.213-0.187-0.42-0.4-0.62c-0.213-0.2-0.467-0.273-0.76-0.22c-0.187,0.373-0.279,0.859-0.279,1.46
			C90.801,42.079,90.866,42.713,91,43.379z"/>
		<path d="M96.041,40.299c0-0.319,0.105-0.532,0.319-0.64c0.213-0.106,0.453-0.14,0.721-0.1c0.266,0.04,0.513,0.134,0.739,0.279
			c0.227,0.147,0.34,0.301,0.34,0.46c0.08,0.587,0.134,1.24,0.16,1.96c0.026,0.721,0.061,1.421,0.101,2.101s0.1,1.313,0.18,1.899
			c0.08,0.587,0.213,1.04,0.4,1.36c0.266-0.293,0.486-0.633,0.659-1.02c0.174-0.387,0.313-0.78,0.421-1.181
			c0.105-0.399,0.199-0.806,0.279-1.22c0.08-0.413,0.146-0.793,0.2-1.14v-0.16c-0.08-0.373-0.12-0.76-0.12-1.16
			s0.133-0.706,0.4-0.92c0.106-0.08,0.266-0.14,0.479-0.18s0.387-0.047,0.521-0.021c0.266,0.054,0.453,0.307,0.56,0.76
			c0.106,0.454,0.267,1.147,0.48,2.08c0.053,0.24,0.14,0.547,0.26,0.92c0.12,0.374,0.26,0.754,0.42,1.141s0.347,0.767,0.56,1.14
			c0.214,0.374,0.44,0.693,0.681,0.96c0.266-0.24,0.446-0.753,0.54-1.54c0.093-0.786,0.126-1.64,0.1-2.56s-0.087-1.813-0.18-2.681
			c-0.094-0.866-0.194-1.5-0.3-1.899c-0.054-0.16-0.034-0.293,0.06-0.4c0.093-0.106,0.213-0.18,0.36-0.22
			c0.146-0.04,0.286-0.033,0.42,0.02c0.133,0.054,0.226,0.16,0.28,0.32c0.133,0.374,0.239,0.867,0.319,1.48
			c0.106,0.88,0.24,1.573,0.4,2.08s0.319,0.899,0.479,1.18s0.307,0.467,0.44,0.56c0.133,0.094,0.253,0.141,0.36,0.141
			c0.133,0.026,0.359-0.073,0.68-0.301c0.32-0.226,0.546-0.579,0.68-1.06c0.026-0.16,0.101-0.267,0.22-0.32
			c0.12-0.053,0.233-0.066,0.341-0.04c0.105,0.027,0.199,0.094,0.279,0.2c0.08,0.107,0.094,0.254,0.04,0.44
			c-0.187,0.613-0.514,1.094-0.979,1.439c-0.467,0.347-0.9,0.547-1.3,0.601c-0.48,0.054-0.975-0.094-1.48-0.44
			c-0.026,0.587-0.08,1.147-0.16,1.68c-0.08,0.534-0.187,1.007-0.319,1.421c-0.134,0.413-0.308,0.753-0.521,1.02
			c-0.214,0.267-0.454,0.413-0.72,0.44c-0.454,0.053-0.874-0.054-1.26-0.32c-0.388-0.267-0.74-0.614-1.061-1.04
			c-0.32-0.427-0.594-0.9-0.82-1.42c-0.227-0.521-0.42-1.021-0.58-1.5c-0.106,0.427-0.233,0.874-0.38,1.34
			c-0.146,0.467-0.319,0.9-0.52,1.3c-0.2,0.4-0.427,0.733-0.68,1c-0.254,0.267-0.527,0.427-0.82,0.48
			c-0.507,0.08-0.914-0.047-1.22-0.38c-0.308-0.334-0.554-0.774-0.74-1.32c-0.188-0.546-0.313-1.173-0.38-1.88
			c-0.067-0.706-0.12-1.4-0.16-2.08s-0.067-1.293-0.08-1.84C96.127,40.973,96.094,40.566,96.041,40.299z"/>
	</g>
</g>
</svg>
