<?xml version="1.0" encoding="utf-8"?>
<!-- Generator: Adobe Illustrator 16.0.4, SVG Export Plug-In . SVG Version: 6.00 Build 0)  -->
<!DOCTYPE svg PUBLIC "-//W3C//DTD SVG 1.1//EN" "http://www.w3.org/Graphics/SVG/1.1/DTD/svg11.dtd">
<svg version="1.1" id="Warstwa_1" xmlns="http://www.w3.org/2000/svg" xmlns:xlink="http://www.w3.org/1999/xlink" x="0px" y="0px"
	 width="165px" height="80px" viewBox="0 0 165 80" enable-background="new 0 0 165 80" xml:space="preserve">
<g>
	<rect fill="#F4F4F4" width="165" height="80"/>
	<g>
		<path d="M62.232,36.538h-3.432v13.297H55.2V36.538h-3.816v-3.505h21.218v3.505h-6.769v2.4h6.456v3.456h-6.456v3.912h6.889v3.528
			H62.232V36.538z"/>
		<path d="M79.104,46.69l-1.344,3.145h-3.816l7.536-17.113l7.537,17.113H85.2l-1.296-3.145H79.104z M81.479,40.57l-1.151,2.904
			h2.352L81.479,40.57z"/>
		<path d="M110.977,43.666c1.921,1.44,2.328,3.121,2.328,4.873v1.296h-3.6v-1.296c0-1.776-1.2-3.24-3.024-3.24h-2.208v4.536h-3.601
			V36.346h-3.624v13.489h-3.601V36.346h-3.816v-3.312h17.258c3.432,0,6.216,2.784,6.216,6.192
			C113.305,41.482,112.201,42.706,110.977,43.666z M106.753,36.346h-2.28v5.736h2.28c1.584,0,2.88-1.296,2.88-2.856
			C109.633,37.642,108.337,36.346,106.753,36.346z"/>
	</g>
</g>
</svg>
