j<?xml version="1.0" encoding="utf-8"?>
<!-- Generator: Adobe Illustrator 16.0.4, SVG Export Plug-In . SVG Version: 6.00 Build 0)  -->
<!DOCTYPE svg PUBLIC "-//W3C//DTD SVG 1.1//EN" "http://www.w3.org/Graphics/SVG/1.1/DTD/svg11.dtd">
<svg version="1.1" id="Warstwa_2" xmlns="http://www.w3.org/2000/svg" xmlns:xlink="http://www.w3.org/1999/xlink" x="0px" y="0px"
	 width="194px" height="239px" viewBox="0 0 194 239" enable-background="new 0 0 194 239" xml:space="preserve">
<g>
	<path fill="#CC3E36" d="M111.364,74.916v-7.861l-10.76-10.763L89.844,67.055v7.859L111.364,74.916z M93.305,68.488l7.3-7.299
		l7.299,7.299v2.967l-14.599-0.002V68.488z"/>
	<path fill="#CC3E36" d="M74.955,86.148h50.516v23.928H194V82.685h-24.943l-15.161-15.161l-15.158,15.161H128.39l-23.168-60.43
		h-9.232L79.565,65.093h-48.23L16.173,49.932L0,66.106v43.972h74.955V86.148z M190.536,106.614h-18.018l18.018-18.02V106.614z
		 M170.073,86.148h18.016l-18.016,18.02V86.148z M153.896,72.42l10.264,10.265h-20.527L153.896,72.42z M128.932,86.148h37.677
		v20.466h-37.677V86.148z M98.37,25.717h4.471l21.84,56.968H76.528L98.37,25.717z M16.173,54.828l10.266,10.266L5.91,65.091
		L16.173,54.828z M71.494,106.614H3.461v-38.06h74.776l-6.744,17.594V106.614z"/>
	<path fill="#CC3E36" d="M109.561,9.13l-8.956-8.958L91.649,9.13l8.955,8.957L109.561,9.13z M100.604,5.069l4.059,4.061
		l-4.059,4.062l-4.06-4.062L100.604,5.069z"/>
	<path fill="#CC3E36" d="M109.862,209.096c0-6.621-4.499-10.356-12.35-10.356H84.23v29.707h7.554v-8.36h5.728h0.213l4.412,8.36
		h8.571l-6.236-9.803C107.952,216.902,109.862,213.636,109.862,209.096z M97.512,214.144h-5.728v-9.463h5.728
		c3.269,0,5.179,1.57,5.179,4.67C102.691,212.489,100.781,214.144,97.512,214.144z"/>
	<path fill="#CC3E36" d="M43.031,213.552c0,8.698,6.874,15.233,16.041,15.233c9.208,0,16.083-6.577,16.083-15.233
		c0-8.615-6.875-15.066-16.083-15.066C49.905,198.485,43.031,204.894,43.031,213.552z M59.156,204.808
		c4.583,0,8.233,3.779,8.233,8.786c0,5.008-3.65,8.869-8.233,8.869c-4.541,0-8.402-3.861-8.402-8.869
		C50.754,208.587,54.573,204.808,59.156,204.808z"/>
	<polygon fill="#CC3E36" points="128.399,198.739 121.736,198.739 121.736,228.446 128.823,228.446 128.823,210.154
		142.489,228.446 149.151,228.446 149.151,198.739 142.106,198.739 142.106,217.072 	"/>
	<path fill="#CC3E36" d="M87.761,98.258l-1.05,0.45v50.535H114.5V98.707l-1.05-0.448c-4.072-1.742-8.392-2.624-12.845-2.624
		C96.152,95.635,91.83,96.517,87.761,98.258z M98.874,145.78h-8.702v-7.528h8.702V145.78z M98.874,134.79h-8.702v-24.704h8.702
		V134.79z M98.874,106.625h-8.702v-5.608c2.786-1.067,5.732-1.66,8.702-1.834V106.625z M102.335,99.183
		c2.968,0.174,5.915,0.767,8.702,1.834v5.608h-8.702V99.183z M102.335,110.086h8.702v24.704h-8.702V110.086z M102.335,138.251h8.702
		v7.528h-8.702V138.251z"/>
	<polygon fill="#CC3E36" points="66.201,191.356 59.582,189.022 55.083,196.152 60.685,196.152 	"/>
	<path fill="#CC3E36" d="M22.752,204.808c2.759,0,5.772,1.231,7.936,3.225l4.244-5.133c-3.056-2.715-7.724-4.414-12.137-4.414
		c-9.378,0-16.38,6.493-16.38,15.108c0,8.656,6.832,15.191,15.872,15.191c4.158,0,9.166-1.612,12.348-3.861v-11.585h-6.535v7.68
		c-1.781,0.893-3.735,1.444-5.262,1.444c-4.923,0-8.7-3.819-8.7-8.869C14.137,208.629,17.872,204.808,22.752,204.808z"/>
	<path fill="#CC3E36" d="M157.846,228.446h7.763l2.164-5.475h12.988l2.121,5.475h8.065l-12.522-29.707h-7.766L157.846,228.446z
		 M178.553,217.244h-8.573l4.329-10.993L178.553,217.244z"/>
	<path fill="#CC3E36" d="M42.761,178.072h-1.402v2.316h1.402c0.8,0,1.267-0.405,1.267-1.173
		C44.027,178.457,43.561,178.072,42.761,178.072z"/>
	<path fill="#CC3E36" d="M19.413,178.104c-1.12,0-2.056,0.924-2.056,2.149c0,1.227,0.945,2.173,2.056,2.173
		c1.122,0,2.017-0.946,2.017-2.173C21.43,179.027,20.535,178.104,19.413,178.104z"/>
	<path fill="#CC3E36" d="M194,173.097H0.077v13.847H194V173.097z M31.566,174.237l1.621,0.573l-1.35,1.175h-1.373L31.566,174.237z
		 M19.392,183.973c-2.242,0-3.926-1.599-3.926-3.73c0-2.118,1.684-3.687,3.926-3.687c2.254,0,3.938,1.58,3.938,3.687
		C23.33,182.363,21.646,183.973,19.392,183.973z M31.337,183.951c-1.217,0-2.463-0.456-3.324-1.161l0.717-1.424
		c0.748,0.654,1.869,1.091,2.628,1.091c0.582,0,0.945-0.219,0.945-0.636c0-1.288-3.843-0.518-3.843-3.095
		c0-1.341,1.152-2.192,2.898-2.192c1.048,0,2.119,0.322,2.867,0.811l-0.696,1.444c-0.769-0.448-1.736-0.757-2.327-0.757
		c-0.478,0-0.799,0.174-0.799,0.528c0,1.256,3.842,0.541,3.842,3.168C34.245,183.184,32.958,183.951,31.337,183.951z
		 M43.895,183.891l-1.082-2.048h-0.052h-1.402v2.048h-1.851v-7.274h3.253c1.922,0,3.022,0.914,3.022,2.535
		c0,1.114-0.466,1.912-1.318,2.336l1.528,2.402H43.895z M54.735,183.973c-2.242,0-3.925-1.599-3.925-3.73
		c0-2.118,1.683-3.687,3.925-3.687c2.255,0,3.938,1.58,3.938,3.687C58.673,182.363,56.99,183.973,54.735,183.973z M66.961,183.891
		h-3.057v-7.274h3.128c2.286,0,3.865,1.476,3.865,3.636C70.897,182.405,69.297,183.891,66.961,183.891z M81.938,183.891h-5.808
		v-7.274h5.692v1.455H77.98v1.443h3.468v1.456H77.98v1.463h3.958V183.891z M92.125,183.891l-1.92-2.856l-0.967,1.069v1.788h-1.851
		v-7.274h1.851v3.147l2.783-3.147h2.141l-2.702,3.013l2.878,4.261H92.125z M110.811,183.891l-1.923-2.856l-0.967,1.069v1.788h-1.848
		v-7.274h1.848v3.147l2.786-3.147h2.14l-2.702,3.013l2.878,4.261H110.811z M124.635,180.836c0,1.922-1.278,3.137-3.314,3.137
		c-2.046,0-3.356-1.215-3.356-3.137v-4.219h1.851v4.219c0,0.985,0.634,1.59,1.517,1.59c0.871,0,1.463-0.604,1.463-1.59v-4.219h1.84
		V180.836z M135.153,183.891h-4.934v-7.274h1.851v5.725h3.083V183.891z M145.852,178.104h-2.19v5.787h-1.852v-5.787h-2.171v-1.495
		h6.213V178.104z M157.442,180.836c0,1.922-1.277,3.137-3.312,3.137c-2.048,0-3.357-1.215-3.357-3.137v-4.219h1.851v4.219
		c0,0.985,0.634,1.59,1.518,1.59c0.871,0,1.464-0.604,1.464-1.59v-4.219h1.837V180.836z M167.415,183.891l-1.082-2.048h-0.053
		h-1.401v2.048h-1.851v-7.274h3.252c1.923,0,3.023,0.914,3.023,2.535c0,1.114-0.466,1.912-1.318,2.336l1.527,2.402H167.415z
		 M178.485,183.891h-1.839v-2.297l-2.69-4.977h1.85l1.757,3.171l1.713-3.171h1.85l-2.64,4.926V183.891z"/>
	<path fill="#CC3E36" d="M54.756,178.104c-1.12,0-2.056,0.924-2.056,2.149c0,1.227,0.944,2.173,2.056,2.173
		c1.122,0,2.017-0.946,2.017-2.173C56.773,179.027,55.878,178.104,54.756,178.104z"/>
	<path fill="#CC3E36" d="M166.28,178.072h-1.401v2.316h1.401c0.801,0,1.268-0.405,1.268-1.173
		C167.548,178.457,167.081,178.072,166.28,178.072z"/>
	<path fill="#CC3E36" d="M66.99,178.093h-1.236v4.323h1.319c1.133,0,1.943-0.873,1.943-2.15
		C69.017,178.977,68.165,178.093,66.99,178.093z"/>
	<rect x="0.172" y="235.366" fill="#CC3E36" width="193.828" height="3.461"/>
</g>
</svg>
